{
  "environment": "web",
  "format": "html",
  "prefix": "https://storage.googleapis.com",
  "mainga": "UA-49880327-14",
  "updated": "2020-06-26T11:41:55+02:00",
  "id": "tp5",
  "duration": 1,
  "title": "TP5 - Artefacts",
  "authors": "OCTO Technology",
  "summary": "TP5",
  "source": "tp5.md",
  "theme": "",
  "status": [
    "published"
  ],
  "category": [
    "tp",
    "artifacts"
  ],
  "tags": [
    "artifacts"
  ],
  "feedback": "https://gitlab.com/octo-technology/octo-bda/cercle-formation/dsin2/-/issues/new",
  "url": "tp5"
}
